Тунис, 100, 100
Австралия, 20090400, 7686850
Алжир, 32531900, 2381740
Ангола, 11190800, 1246700
Аргентина, 39537900, 2766890
Бразилия, 186112800, 8511965
Индия, 1080264400, 3287590
Индонезия, 241973900, 1919440
Иран, 68017900, 1648000
Казахстан, 15185000, 2717300
Канада, 32805000, 9976140
Китай, 1306313800, 9596960
Конго, 60085800, 2345410
Мексика, 106202900, 1972550
Нигер, 11665900, 1267000
Перу, 27925600, 1285220
США, 295734100, 9629091
Саудовская Аравия, 26417600, 1960582
Судан, 40187500, 2505810
Чад, 9826400, 1284000
